<svg width="120" height="120" viewBox="0 0 120 120" fill="none" xmlns="http://www.w3.org/2000/svg">
<rect width="120" height="120"/>
<g clip-path="url(#clip0_5388_7753)">
<path d="M60 16.4671V14.8304C60 12.1557 57.84 10 55.18 10H4.82C2.16 10 0 12.1557 0 14.8104V101.698H120V21.2576C120 18.6029 117.84 16.4472 115.18 16.4472H60V16.4671Z" fill="#F9DF5C"/>
<path d="M115.78 23.3936H5.32007V102.576H115.78V23.3936Z" fill="white"/>
<path d="M58.28 33.2936L56.5 38.2238H4.82C2.16 38.2238 0 40.3795 0 43.0542V104.412C0 107.067 2.16 109.223 4.82 109.223H115.16C117.82 109.223 119.98 107.067 119.98 104.412V34.9503C119.98 32.2956 117.82 30.1399 115.16 30.1399H62.84C60.8 30.1199 58.98 31.3974 58.28 33.2936Z" fill="#F3CC30"/>
<path d="M120 104.392V64.3916C86.6601 96.7672 28.8601 105.41 1.34009 107.725C2.22009 108.644 3.46009 109.222 4.82009 109.222H115.16C117.84 109.222 120 107.067 120 104.392Z" fill="#EDBD31"/>
<path d="M48.74 42.1162H7.94004C5.78004 42.1162 4.04004 43.8528 4.04004 46.0085V54.6313C10.9 49.9207 26.38 44.0124 48.74 42.1162Z" fill="#F6D738"/>
</g>
<defs>
<clipPath id="clip0_5388_7753">
<rect width="120" height="99.2226" fill="white" transform="translate(0 10)"/>
</clipPath>
</defs>
</svg>
